Verilog_transpilers/Three_Inputs_And_Gate/test.vcd
$date
	Fri Mar 17 11:47:43 2023
$end
$version
	Icarus Verilog
$end
$timescale
	1ps
$end
$scope module stimulus $end
$var wire 1 ! z $end
$var reg 1 " w $end
$var reg 1 # x $end
$var reg 1 $ y $end
$scope module uut $end
$var wire 1 # e1 $end
$var wire 1 $ e2 $end
$var wire 1 " e3 $end
$var wire 1 ! s $end
$upscope $end
$upscope $end
$enddefinitions $end
$comment Show the parameter values. $end
$dumpall
$end
#0
$dumpvars
0$
0#
0"
0!
$end
#10000
1#
#20000
1$
#30000
1!
1"
#40000
0!
0$
#50000
0"
#60000
0#
#70000
1$
#80000
1"
